@startuml Sockets Example
title Sockets Example

interface "Sensor"
note bottom
  Proximity sensor indicating
  if an entity approached the
  sensor.
end note

node "Server"
node "Client"
interface "Camera"
note top
  Gets activated whenever
  someone approaches the
  camera.
end note

Sensor -right-> Server
Server <-right-> Client
Camera -left-> Client

@enduml